module CalendarDeviationCalculator

go 1.18

require (
	github.com/gin-gonic/gin v1.9.1
	github.com/golang-jwt/jwt/v5 v5.0.0
	github.com/google/uuid v1.3.0
	github.com/gookit/config/v2 v2.2.3
	github.com/lib/pq v1.10.9
	github.com/phayes/freeport v0.0.0-20220201140144-74d24b5ae9f5
	github.com/sirupsen/logrus v1.9.3
	github.com/stretchr/testify v1.8.4
	github.com/vitorsalgado/mocha/v3 v3.0.2
	golang.org/x/oauth2 v0.9.0
	google.golang.org/api v0.129.0
)

require (
	cloud.google.com/go/compute v1.19.3 // indirect
	cloud.google.com/go/compute/metadata v0.2.3 // indirect
	github.com/bytedance/sonic v1.9.1 // indirect
	github.com/chenzhuoyu/base64x v0.0.0-20221115062448-fe3a3abad311 // indirect
	github.com/davecgh/go-spew v1.1.1 // indirect
	github.com/fatih/color v1.14.1 // indirect
	github.com/gabriel-vasile/mimetype v1.4.2 // indirect
	github.com/gin-contrib/sse v0.1.0 // indirect
	github.com/go-playground/locales v0.14.1 // indirect
	github.com/go-playground/universal-translator v0.18.1 // indirect
	github.com/go-playground/validator/v10 v10.14.0 // indirect
	github.com/goccy/go-json v0.10.2 // indirect
	github.com/goccy/go-yaml v1.11.0 // indirect
	github.com/golang/groupcache v0.0.0-20210331224755-41bb18bfe9da // indirect
	github.com/golang/protobuf v1.5.3 // indirect
	github.com/google/s2a-go v0.1.4 // indirect
	github.com/googleapis/enterprise-certificate-proxy v0.2.5 // indirect
	github.com/googleapis/gax-go/v2 v2.11.0 // indirect
	github.com/gookit/color v1.5.3 // indirect
	github.com/gookit/goutil v0.6.10 // indirect
	github.com/imdario/mergo v0.3.15 // indirect
	github.com/json-iterator/go v1.1.12 // indirect
	github.com/klauspost/compress v1.15.9 // indirect
	github.com/klauspost/cpuid/v2 v2.2.4 // indirect
	github.com/kr/pretty v0.3.1 // indirect
	github.com/leodido/go-urn v1.2.4 // indirect
	github.com/mattn/go-colorable v0.1.13 // indirect
	github.com/mattn/go-isatty v0.0.19 // indirect
	github.com/mitchellh/mapstructure v1.5.0 // indirect
	github.com/modern-go/concurrent v0.0.0-20180306012644-bacd9c7ef1dd // indirect
	github.com/modern-go/reflect2 v1.0.2 // indirect
	github.com/pelletier/go-toml/v2 v2.0.8 // indirect
	github.com/pierrec/lz4/v4 v4.1.15 // indirect
	github.com/pmezard/go-difflib v1.0.0 // indirect
	github.com/segmentio/kafka-go v0.4.35 // indirect
	github.com/stretchr/objx v0.5.0 // indirect
	github.com/twitchyliquid64/golang-asm v0.15.1 // indirect
	github.com/ugorji/go/codec v1.2.11 // indirect
	github.com/xo/terminfo v0.0.0-20220910002029-abceb7e1c41e // indirect
	go.opencensus.io v0.24.0 // indirect
	golang.org/x/arch v0.3.0 // indirect
	golang.org/x/crypto v0.10.0 // indirect
	golang.org/x/net v0.11.0 // indirect
	golang.org/x/sync v0.3.0 // indirect
	golang.org/x/sys v0.9.0 // indirect
	golang.org/x/term v0.9.0 // indirect
	golang.org/x/text v0.10.0 // indirect
	golang.org/x/xerrors v0.0.0-20220907171357-04be3eba64a2 // indirect
	google.golang.org/appengine v1.6.7 // indirect
	google.golang.org/genproto/googleapis/rpc v0.0.0-20230530153820-e85fd2cbaebc // indirect
	google.golang.org/grpc v1.56.1 // indirect
	google.golang.org/protobuf v1.31.0 // indirect
	gopkg.in/check.v1 v1.0.0-20201130134442-10cb98267c6c // indirect
	gopkg.in/yaml.v3 v3.0.1 // indirect
)
